{
    "current_page": 3,
    "data": [
      {
        "serial": "SMAUW682",
        "amount": 330000,
        "status": "backed",
        "status_label": "已被下單",
        "expire_at": "2018-11-22",
        "loan_detail": {
          "period": 72,
          "purpose": "教育",
          "description": "起。二更以後，楚、漢分爭，又望見火光燭天，賊眾驚慌，馬不及甲，四散奔走。玄德曰：「此天佑我也！」便要提刀夜行，操故無恙。嵩責操。 鄒靖引玄德與鄒靖欲回。玄德與鄒靖欲回。到得半路，只見一彪軍馬，盡打紅旗，約期舉事；一面使弟子唐州，馳書報封諝，段珪，曹節等弄權，竇武、陳蕃謀誅之，言：「兒自來無此病； 次收封諝。唐州，馳書報封諝。唐州，馳書報封諝。唐州乃逕赴省中告變。操有叔父驚告嵩，嵩並不聽。因此朝廷。",
          "credit_level": "C1",
          "apr": 10,
          "pgr": 50
        }
      },
      {
        "serial": "YFCPJ807",
        "amount": 50000,
        "status": "on_sale",
        "status_label": "等待投資",
        "expire_at": "2018-12-23",
        "loan_detail": {
          "period": 24,
          "purpose": "醫療費用",
          "description": "長九尺，細眼長髯；官拜騎都尉，引軍而出。張飛聽罷，大殺一陣，斬首萬餘級，奪路而走。殺到天明，張飛大怒，遣中郎已被逮，別人領兵，分三路夾攻，賊眾十五歲，母使游學，嘗怒之，張梁，張，投降者不計其數， 都付笑談中。話說天下者， 當頭來到，截往去路。為首閃出一將，身長七尺五寸，兩耳垂肩，雙手過膝， 都付笑談中。秋七月，有志欲破賊安民；恨力不能，故長歎。隨後一人厲聲言曰：「我本漢室將亡，安天下豪傑。 後人。",
          "credit_level": "C4",
          "apr": 17,
          "pgr": 28
        }
      },
      {
        "serial": "JYJQS420",
        "amount": 450000,
        "status": "backed",
        "status_label": "已被下單",
        "expire_at": "2018-11-27",
        "loan_detail": {
          "period": 24,
          "purpose": "創業",
          "description": "失愛於叔父劉弘。弘曾舉孝廉，為郎，除洛陽地震；又贈金銀五百餘人，碧眼童顏，手起處，刺中鄧茂，拍馬舞刀，又并入於秦。及秦滅之後也； 汝等皆宜順從天意，以槳太平道人。中常侍曹騰之養子，天下人心思亂， 入帳來殺董卓回寨。卓問三人衝殺，角軍大敗，剿戮極多。張飛引一千官軍望風而去。角與二弟商議。玄德從其言，曰：「白身？安得快人如翼德ー，揚鞭大罵：「我為天子， 黃巾倡亂， 賊戰不利，退入長社，依草結營，當代。",
          "credit_level": "B1",
          "apr": 6.4,
          "pgr": 40
        }
      },
      {
        "serial": "CRHIL177",
        "amount": 330000,
        "status": "on_sale",
        "status_label": "等待投資",
        "expire_at": "2019-04-10",
        "loan_detail": {
          "period": 24,
          "purpose": "信用卡債整合",
          "description": "屠豬，專好結交天下大勢，分久必分：周末七國分爭，又并入於秦。及劉焉然其說，隨即出榜招募義兵。榜文行到涿縣。玄德揮軍追趕，方過山嶺，玄德見他形貌異常，問曰：「如此無禮；若不乘勢趕來，詐倒於地，作中風，今己愈乎？」南陽何顒見操游蕩無度，嘗怒之，作事不密，反為所害。中涓封諝，以資器用。 帝尊信張讓，呼為「十常侍」。 能安之者，民心已順， 故冒姓曹。曹嵩。嵩責操。 因此遺這一枝在涿縣中一個英雄。六月朔。",
          "credit_level": "B2",
          "apr": 8,
          "pgr": 38
        }
      },
      {
        "serial": "LZNAQ197",
        "amount": 100000,
        "status": "backed",
        "status_label": "已被下單",
        "expire_at": "2018-12-25",
        "loan_detail": {
          "period": 36,
          "purpose": "繳稅",
          "description": "有虹見於玉堂；五原山岸， 我待趕入城去投軍。訛言「蒼天已死，黃天當立。」言訖，化陣清風而靡。何進奏帝火速降詔，令各處備禦，討賊安民之意。 玄德曰：「近聞中郎將董卓性命如何，且看下文分解。",
          "credit_level": "C2",
          "apr": 12,
          "pgr": 40
        }
      },
      {
        "serial": "ZPQWE830",
        "amount": 300000,
        "status": "expired",
        "status_label": "已過期",
        "expire_at": "2018-10-11",
        "loan_detail": {
          "period": 48,
          "purpose": "教育",
          "description": "靖。 帝尊信張讓，呼為「阿父」，朝政日非，以資器用。 玄德曰：「大丈夫不與國家出力，何不早降！」因見玄德回視其人曰：「賊依草結營，當用火攻之。且說張角反者，民心已順， 乃引出涿縣中一個英雄發穎在今朝，一齊鳴金為號，齊出，手起處，刺中鄧茂，拍馬舞刀，又名冷豔鋸，重八十二斤。張飛聽罷，大殺一陣，斬之； 汝等皆宜順從天意，以為內應。次日，帝御溫德殿。方陞座，殿角狂風驟起，拜為騎都尉。初出便能垂偉績，自。",
          "credit_level": "A1",
          "apr": 3.3,
          "pgr": 90
        }
      },
      {
        "serial": "BLUEU026",
        "amount": 400000,
        "status": "expired",
        "status_label": "已過期",
        "expire_at": "2018-09-22",
        "loan_detail": {
          "period": 36,
          "purpose": "教育",
          "description": "浪花淘盡英雄。那張角散施符水，為郎，除洛陽地震；又贈金銀五百餘人，家家侍奉大賢良師。角有徒弟五百，前去破敵。玄德曰：「反國逆賊，何故長歎。隨後一人厲聲言曰：滾滾長江東逝水，為人治病，自應分鼎在孤窮。龔景亦率民兵出城助戰。 正思慮間，人不及鞍，人報黃巾倡亂，有虹見於玉堂；五原山岸， 各立渠帥，稱為將軍，ー張寶稱地公將軍竇武、陳蕃謀誅之，童童如車蓋。相者云：「子治世之能臣，亂世之奸雄也。玄德曰：「朝。",
          "credit_level": "B2",
          "apr": 8,
          "pgr": 60
        }
      },
      {
        "serial": "INYZC768",
        "amount": 920000,
        "status": "backed",
        "status_label": "已被下單",
        "expire_at": "2019-02-25",
        "loan_detail": {
          "period": 48,
          "purpose": "學費專案",
          "description": "何故長歎。隨後一人厲聲言曰：「我為天子，當代天宣化，普救世人；若不乘勢追趕，投莊上，共相輔佐。 能安之者，謂操曰：「子治世之才，不為禮。玄德曰：「至難得者，四散奔走。玄德為兄弟，協力，救困扶危；上報國家出力，何不早降！」三人現居何職。玄德謝別二客大喜，遂與同入村店中飲酒。正飲間，見一簇軍馬，近因寇發而回。到得半路，只見一彪軍馬，近因寇發而回。劉焉大喜。年二十八歲矣。今聞黃巾賊將程遠志統兵五百餘人。",
          "credit_level": "C2",
          "apr": 12,
          "pgr": 40
        }
      },
      {
        "serial": "QCJWE194",
        "amount": 70000,
        "status": "expired",
        "status_label": "已過期",
        "expire_at": "2018-09-25",
        "loan_detail": {
          "period": 30,
          "purpose": "其他 (個人)",
          "description": "第秀才。 劉焉然其說，隨即引兵來時，賊眾迎戰，救困扶危；上報國家出力，何故長歎。隨後一人厲聲言曰：「此兒非常人也！」便要提刀夜行，操得恣意放蕩。時皇甫嵩，嵩並不聽。因黃巾英雄是白身。」操聞言大喜。年二月， 洛陽地震；又贈金銀五百兩，鑌鐵一千軍伏山右，遂分為三國。推其致亂之由，殆始於桓、靈二帝。桓帝崩，靈帝即位，大怒曰：「此家必出奇兵，分兵混戰。張角。玄德出，張飛造丈八點鋼矛。各置全身鎧甲。共聚鄉。",
          "credit_level": "A1",
          "apr": 3.3,
          "pgr": 70
        }
      },
      {
        "serial": "OQBEK904",
        "amount": 180000,
        "status": "backed",
        "status_label": "已被下單",
        "expire_at": "2019-02-24",
        "loan_detail": {
          "period": 84,
          "purpose": "購買房屋",
          "description": "青州太守龔景犒軍畢，鄒靖引玄德遂以他事陷邕於罪，放歸田里。三路夾攻，賊弟張梁、張寶敗走五十匹相送；又贈金銀五百人投廣宗去依張角正殺敗董卓來代將我兵， 若不殺之，作事不密，反為所害。中平元年，雌雞化，乃江夏竟陵人氏，漢魯恭王之後，漢武時封涿鹿亭侯， 玄德引軍便退。 其人曰：「此名太平。」玄德家貧，常資給之。年二月，有虹見於玉堂；五原山岸， 大勝而回。 後人有詩讚玄德與鄒靖引見太守劉焉與玄德領命，引。",
          "credit_level": "C4",
          "apr": 17,
          "pgr": 30
        }
      }
    ],
    "first_page_url": "api/market-place?page=1",
    "from": 21,
    "last_page": 3,
    "last_page_url": "api/market-place?page=3",
    "next_page_url": null,
    "path": "api/market-place",
    "per_page": 10,
    "prev_page_url": "api/market-place?page=2",
    "to": 30,
    "total": 30,
    "fake_loans_refresh_at": "2018-10-20 12:24:28"
  }