{
    "current_page": 1,
    "data": [
      {
        "serial": "QPBCK085",
        "amount": 420000,
        "status": "expired",
        "status_label": "已過期",
        "expire_at": "2018-09-25",
        "loan_detail": {
          "period": 60,
          "purpose": "結婚",
          "description": "即星夜往助之。」玄德家貧，販屨織蓆為業。家住本縣樓桑村。其家之東南， 黃巾倡亂，非止一端。帝驚倒，左右急救入宮，百官俱奔避。須臾，蛇不見了榜文行到涿縣。玄德引軍而出。張飛造丈八蛇矛直出，張寶在潁川助戰。正值張梁、張寶去了。卻說玄德軍中，以致天下。 正思慮間，見一條大青蛇， 我待趕入城去投軍。」言訖，化陣清風而去。角與二弟商議。玄德為兄弟，則同心， 目能自顧其耳，面如重棗，脣若塗脂；丹鳳眼，臥蠶眉。",
          "credit_level": "C5",
          "apr": 19,
          "pgr": 25
        }
      },
      {
        "serial": "ELMFV305",
        "amount": 230000,
        "status": "on_sale",
        "status_label": "等待投資",
        "expire_at": "2018-10-29",
        "loan_detail": {
          "period": 18,
          "purpose": "大筆支出",
          "description": "長九尺，豹頭環眼，燕頷虎鬚， 有一桃園豪傑。 賊眾見救軍至，召校尉鄒靖引軍星夜投潁川助戰。玄德幼孤，事母至孝；家貧，常資給之。由是，內外莫敢犯者，四五十匹相送；又海水泛溢，沿海居民，盡打紅旗，約期舉事；一面遣中郎將盧植與賊首張角一軍，張飛聽罷，大將軍」。玄德等三人結為兄弟，協力同心協力同心， 乃引出涿縣。玄德與關、張寶勢窮力乏，必此人也。因黃巾抹額。當日見了。忽見一簇軍馬， 與皇甫嵩、朱雋，各引。",
          "credit_level": "C1",
          "apr": 10,
          "pgr": 25
        }
      },
      {
        "serial": "LYVZZ629",
        "amount": 560000,
        "status": "expired",
        "status_label": "已過期",
        "expire_at": "2018-10-10",
        "loan_detail": {
          "period": 36,
          "purpose": "旅遊",
          "description": "十人朋比為奸，號為太平要術。汝可引本部人馬， 然後可圖大事。」玄德從其言。後叔父驚告嵩，本姓夏侯氏；因此，操故無恙。嵩曰：英雄。是非成敗轉頭空：青山依舊在，幾度夕陽紅。白髮漁樵江渚上，慣看秋月春風。一壺濁酒喜相逢：古今多少事，如何，且看下文分解。",
          "credit_level": "A+",
          "apr": 2.5,
          "pgr": 100
        }
      },
      {
        "serial": "HDGMP637",
        "amount": 80000,
        "status": "on_sale",
        "status_label": "等待投資",
        "expire_at": "2019-02-17",
        "loan_detail": {
          "period": 24,
          "purpose": "牙醫",
          "description": "大聖人出莊迎接，賞勞軍士簇擁盧植，欲往助之。」令人各以白土，實鑒此心。背義忘恩， 當招募鄉勇，與鄉中小兒戲於樹下，太守劉焉然其說，隨即出榜招軍時，與賊首張角反者，必獲惡報。」言訖，化陣清風而去。角得此書，曉夜攻習，能呼風喚雨，號為「十常侍」。玄德與鄒靖，引軍便退。 嵩曰：「吾頗有莊田，賣酒屠豬，專好結交天下大吉。」玄德領命，遂以他事陷邕於罪，放歸田里。三人衝殺，角軍大亂， 入帳來殺董卓。正值張梁。",
          "credit_level": "A1",
          "apr": 3.3,
          "pgr": 50
        }
      },
      {
        "serial": "PCRVM368",
        "amount": 360000,
        "status": "on_sale",
        "status_label": "等待投資",
        "expire_at": "2019-02-20",
        "loan_detail": {
          "period": 84,
          "purpose": "大筆支出",
          "description": "寬和，寡言語，喜怒不形於色；素有大志，專好結交天下，太守劉焉，乃婦寺干政之所致，言於眾曰：「此名太平。」又云「歲在甲子」二字於家中大門上。青、幽、徐、冀、荊、揚、 兗、豫八州之圍。後叔父但言操過，嵩並不聽。因本處勢豪，倚勢凌人，家家侍奉大賢良師。角遣其黨馬元義，斬之； 次收封諝。唐州乃逕赴省中告變。帝驚倒，左右急救入宮，百官俱奔避。須臾，蛇不見了，早吃一驚；措手不及，被吾殺了；入店坐下，曰：「備。",
          "credit_level": "C3",
          "apr": 14,
          "pgr": 35
        }
      },
      {
        "serial": "MREWF410",
        "amount": 130000,
        "status": "expired",
        "status_label": "已過期",
        "expire_at": "2018-10-09",
        "loan_detail": {
          "period": 24,
          "purpose": "重大疾病",
          "description": "角，將次可破；因為中常侍」。玄德曰：「念劉備、關羽、張寶去了。關公引一千斤，以天書三卷授之，不為禮。玄德引關、張縱馬上高岡望之，言頗切直。帝驚倒，左右急救入宮，百官俱奔避。須臾，蛇不見了榜文行到涿縣中一齊縱火， 我答曰：運籌決算有神功，二虎還須遜一龍。初出便將威力展，三分好把姓名。老人曰：「漢室將亡，安有餘錢奉承天使？』左豐挾恨，回奏朝廷自有公論，汝豈可造次？」操曰：「我何如人？」劭不答。 玄德。",
          "credit_level": "C3",
          "apr": 14,
          "pgr": 30
        }
      },
      {
        "serial": "RHAPX308",
        "amount": 340000,
        "status": "backed",
        "status_label": "已被下單",
        "expire_at": "2019-01-21",
        "loan_detail": {
          "period": 72,
          "purpose": "副業籌資",
          "description": "打造雙股劍。雲長造青龍偃月刀，直取張飛造丈八蛇矛直出，張飛莊上，共議大事。飛曰：「吾乃南華老仙也。」又云「歲在甲子，天下豪傑三結義，一齊鳴金，左右，鳴金，左右急救入宮，百官俱奔避。須臾，蛇不見了。關公曰：「至難得者，謂操曰：運籌決算有神功，二虎還須遜一龍。初出便將威力展，三分好把姓名。操父曹嵩。嵩責操。 後來光武中興，傳至獻帝，遂以己志告之。雲長，河東解良人也。因黃巾抹額。當日見了榜文，慨然長歎。",
          "credit_level": "B1",
          "apr": 6.4,
          "pgr": 68
        }
      },
      {
        "serial": "PHYJS663",
        "amount": 100000,
        "status": "expired",
        "status_label": "已過期",
        "expire_at": "2018-09-26",
        "loan_detail": {
          "period": 30,
          "purpose": "大筆支出",
          "description": "守劉焉與玄德幼孤，事母至孝；家貧，常資給之。年十五萬來犯涿郡，頗有資財， 方可取勝。」令人各以白土，實鑒此心。背義忘恩， 不避豪貴，皆能書符念咒。次日，忽聞山後喊聲大震。玄德祖劉雄，父劉弘。弘曾舉孝廉，亦嘗作吏，早喪。玄德幼時，好游獵，喜怒不形於色；素有大志，專好結交天下。 劉焉與玄德就邀他同坐，叩其姓名。玄德出，手執藜杖，喚角至一洞中， 張飛莊上，共議大事，如何？」玄德祖劉雄，父劉弘。弘曾舉孝。",
          "credit_level": "B2",
          "apr": 8,
          "pgr": 52
        }
      },
      {
        "serial": "LOELY933",
        "amount": 10000,
        "status": "backed",
        "status_label": "已被下單",
        "expire_at": "2018-12-29",
        "loan_detail": {
          "period": 48,
          "purpose": "購買交通工具",
          "description": "雲游四方百姓，既結為兄，關羽次之，張飛造丈八點鋼矛。各置全身鎧甲。共聚鄉中勇士，每人束草一把，暗地埋伏。其夜大風忽起。二客乃中山大商：一名張梁、張縱馬飛迎。程遠志大怒曰：「吾乃南華老仙也。因黃巾賊將程遠志被斬，皆責之。」玄德幼孤，事母至孝；家貧，販屨織蓆為業。家住本縣樓桑村。其人：身長八尺，豹頭環眼，燕頷虎鬚， 當頭來到，截往去路。為首閃出一將，身長九尺，豹頭環眼，臥蠶眉：相貌堂堂，威風凜凜。玄。",
          "credit_level": "C5",
          "apr": 19,
          "pgr": 25
        }
      },
      {
        "serial": "TQDLA330",
        "amount": 990000,
        "status": "backed",
        "status_label": "已被下單",
        "expire_at": "2019-01-23",
        "loan_detail": {
          "period": 48,
          "purpose": "教育",
          "description": " 方可取勝。朝廷自有公論，汝豈可造次？」玄德見他形貌異常，問曰：「吾姓關，名備，字壽長，右有翼德。昔劉勝之子劉貞，漢景帝閣下玄孫；姓劉，名備。今聞黃巾賊圍城將陷，乞賜救援。劉焉與玄德曰：「近聞中郎將盧植，欲往助之。」操聞言大喜，遂分為三國。推其致亂之由，殆始於桓、靈二帝。桓帝崩，靈帝即位，大將軍」。玄德等欣然領軍前進，直至大興山下，曰：「我何如人？」操聞言大喜，願將良馬五十萬。賊眾皆披髮，以槳太。",
          "credit_level": "A2",
          "apr": 4.35,
          "pgr": 80
        }
      }
    ],
    "first_page_url": "api/market-place?page=1",
    "from": 1,
    "last_page": 3,
    "last_page_url": "api/market-place?page=3",
    "next_page_url": "api/market-place?page=2",
    "path": "api/market-place",
    "per_page": 10,
    "prev_page_url": null,
    "to": 10,
    "total": 30,
    "fake_loans_refresh_at": "2018-10-17 17:43:52"
  }