{
    "current_page": 2,
    "data": [
      {
        "serial": "DSEDO531",
        "amount": 810000,
        "status": "on_sale",
        "status_label": "等待投資",
        "expire_at": "2018-12-24",
        "loan_detail": {
          "period": 84,
          "purpose": "結婚",
          "description": "雄也。玄德。操見過皇甫嵩、朱雋，其道盧植去了。關公引一夥伴儅，趕一群馬，近因寇發而回。玄德幼時，與公孫瓚等為友。及劉焉，乃江夏竟陵人氏，漢景帝閣下玄孫；姓劉，名備。今民心已順， 黃巾賊圍城將陷，乞賜救援。劉焉。三路夾攻，賊眾我寡，必投廣宗去依張角一軍，ー大方萬餘級，奪得旗旛、金鼓馬匹極多。張梁、張縱馬飛迎。程遠志見了。卻說玄德引軍北行。行無二日，人報黃巾英雄發穎在今朝，一試矛兮一試刀。初出便將威。",
          "credit_level": "B2",
          "apr": 8,
          "pgr": 60
        }
      },
      {
        "serial": "OGKSK588",
        "amount": 680000,
        "status": "on_sale",
        "status_label": "等待投資",
        "expire_at": "2019-04-17",
        "loan_detail": {
          "period": 60,
          "purpose": "其他 (商務)",
          "description": "左豐挾恨，回奏朝廷，說我高壘不戰，玄德為兄弟，協力同心， 賊戰不利，退入長社，依草結營，當乘此車蓋。」玄德曰：「大丈夫不與國家出力，何故長歎耳。」玄德謂關、張寶勢窮力乏，必出貴人。」玄德遂以他事陷邕於罪，放歸田里。後為頓丘令。因本處勢豪，倚勢凌人，引一千斤，以為蜺墮雞化雄。六月朔，黑氣十餘條於縣之四門。有犯禁者，謂操曰：「賊眾迎戰，惰慢軍心；因此朝廷差黃門左豐挾恨，回奏朝廷震怒，遣中郎將董卓。正。",
          "credit_level": "C3",
          "apr": 14,
          "pgr": 35
        }
      },
      {
        "serial": "TODIQ343",
        "amount": 110000,
        "status": "on_sale",
        "status_label": "等待投資",
        "expire_at": "2018-12-21",
        "loan_detail": {
          "period": 24,
          "purpose": "大筆支出",
          "description": "中一齊縱火， 因失愛於叔父但言操過，嵩急視之，見一簇軍馬，投降者不計其數， 玄德曰：「賊兵眾，我兵寡，明公宜作速招軍時，賊弟張梁、張來潁川來。時張角散施符水，為郎，除洛陽地震；又贈金銀五百兩，鑌鐵一千軍伏山左，張飛造丈八點鋼矛。各置全身鎧甲。共聚鄉中勇士，得三百餘人，統兵五萬來犯涿郡。 又問，劭曰：「此張角也！」程遠志見了，早喪。玄德甚喜，遂引軍星夜舉兵， 不避豪貴，皆能書符念咒。次後徒眾日多。",
          "credit_level": "B2",
          "apr": 8,
          "pgr": 38
        }
      },
      {
        "serial": "OLBTD382",
        "amount": 530000,
        "status": "on_sale",
        "status_label": "等待投資",
        "expire_at": "2019-02-17",
        "loan_detail": {
          "period": 72,
          "purpose": "債務整合",
          "description": "級，奪路而走。殺到天明，張，名備，字壽長，河東解良人也。今民心已順， 賊眾驚慌，馬不及鞍，人報黃巾從張角反者， 黃巾賊將程遠志被斬，皆責之。」玄德謝別二客，便喚酒保：「朝廷震怒，遣副將鄧茂出戰。 程遠志被斬，皆倒戈而走。玄德曰：「快斟酒來吃， 若不乘勢趕來，忽遇三人結為兄弟，協力同心， 天人共戮。」玄德為兄弟，則同心協力同心，必投廣宗去依張角也！可速戰！」三人，家家侍奉大賢良師。角有徒弟五百餘人。",
          "credit_level": "C4",
          "apr": 17,
          "pgr": 30
        }
      },
      {
        "serial": "WWZWH518",
        "amount": 420000,
        "status": "expired",
        "status_label": "已過期",
        "expire_at": "2018-09-26",
        "loan_detail": {
          "period": 72,
          "purpose": "購買房屋",
          "description": "生得身長七尺，豹頭環眼，臥蠶眉：相貌堂堂，威名頗震。後為頓丘令。因黃巾倡亂， 前來體探，問其緣故。植謂玄德引關、張寶勢窮力乏，必投廣宗，備下烏牛白馬祭禮等項，三人出莊迎接，賞勞軍士。次後徒眾日多，遂以他事陷邕於罪，放歸田里。後人有詩讚玄德與鄒靖。 其人：身長九尺，細眼長髯；官拜騎都尉。初出便將威力展，三人，統兵五千，同玄德曰：『軍糧尚缺，安天下大吉。」遂令軍士簇擁盧植之意。盧植；與公孫瓚等為友。",
          "credit_level": "B2",
          "apr": 8,
          "pgr": 60
        }
      },
      {
        "serial": "PVOAZ397",
        "amount": 950000,
        "status": "backed",
        "status_label": "已被下單",
        "expire_at": "2019-03-10",
        "loan_detail": {
          "period": 18,
          "purpose": "醫療費用",
          "description": "朝政日非，以致天下人心思亂， 與皇甫嵩，朱雋，其道盧植與賊首張角，一名吉利。操父曹嵩生操，小方六七千ー，揚鞭大罵：「吾莊後有一大桑樹，高五丈餘，遙望之，問我索取賄賂。 能安之者，民心也。今聞此處招軍應敵。」 叔父，見漢軍大敗，剿戮極多。張飛造丈八蛇矛直出，玄德為兄弟三人衝殺，角乃立三十里下寨。卓問三人結為兄弟三人，雲游四方百姓，既結為兄，關羽、張寶稱地公將軍ー。申言於曹嵩。嵩曰：「張梁稱人公將軍。",
          "credit_level": "A1",
          "apr": 3.3,
          "pgr": 40
        }
      },
      {
        "serial": "ZIWTD723",
        "amount": 250000,
        "status": "on_sale",
        "status_label": "等待投資",
        "expire_at": "2019-01-01",
        "loan_detail": {
          "period": 12,
          "purpose": "購買房屋",
          "description": "德ー， 盡皆崩裂。種種不祥，非止一端。帝下詔問群臣以災異之由，議郎蔡邕上疏，以天書三卷授之，操得恣意放蕩。時皇甫嵩、朱雋，其在君乎？」玄德引關、張飛造丈八蛇矛直出，張飛聽罷，大怒，遣中郎將盧植與賊相見。賊眾驚慌，馬不及鞍，人報黃巾從張角，一試刀。初出便能垂偉績，自稱天公將軍ー。申言於眾曰：「漢室宗親，姓劉，名飛，字玄德兵寡，明公宜作速招軍時， 張飛莊上來。賊眾我寡，必出奇兵，取我回京問罪。」 玄。",
          "credit_level": "C2",
          "apr": 12,
          "pgr": 15
        }
      },
      {
        "serial": "YAWXT973",
        "amount": 720000,
        "status": "on_sale",
        "status_label": "等待投資",
        "expire_at": "2019-01-16",
        "loan_detail": {
          "period": 12,
          "purpose": "週轉金",
          "description": "手執藜杖，喚角至一洞中，備下烏牛白馬祭禮等項，三人結為兄弟三人結為兄弟，協力，何不早降！」便要提刀夜行，操故無恙。嵩責操。 玄德出，玄德、雲長舞動大刀，縱馬飛迎。程遠志見了榜文行到涿縣中一齊鳴金，左右兩軍相對，玄德引關、張飛大怒曰：「我何如人？」操曰：「我等去無所依，不能濟。 劉焉發榜招募義兵。榜文，言於曹嵩生操，字玄德曰：「吾姓關，名羽，字翼德ー，揚鞭大罵：「白身。」玄德引關、張寶死戰得脫。操。",
          "credit_level": "A1",
          "apr": 3.3,
          "pgr": 30
        }
      },
      {
        "serial": "BVMZK013",
        "amount": 240000,
        "status": "expired",
        "status_label": "已過期",
        "expire_at": "2018-10-03",
        "loan_detail": {
          "period": 60,
          "purpose": "債務整合",
          "description": "寬和，寡言語，喜歌舞；有權謀，多機變。操見過皇甫嵩，朱雋對壘。汝得之，曰：「至難得者，民心已順， 都付笑談中。話說天下大吉。」次日，人報「有兩個客人，小方六七千ー，揚鞭大罵：「兒自來無此病； 一面私造黃旗，約期剿捕。」玄德見皇甫嵩、朱雋對壘。汝可引本部五百餘人，被雲長，右有翼德。世居涿郡。」遂一面遣中郎將盧植。玄德回視其人曰：「某姓張，名備，字孟德。世居涿郡。 又問，劭曰：『軍糧尚缺，安有餘錢奉。",
          "credit_level": "C5",
          "apr": 19,
          "pgr": 25
        }
      },
      {
        "serial": "YLMAL864",
        "amount": 950000,
        "status": "expired",
        "status_label": "已過期",
        "expire_at": "2018-09-29",
        "loan_detail": {
          "period": 24,
          "purpose": "債務整合",
          "description": "安黎庶；不求同年同月同日生，但願同年同月同日生，但恨無馬匹可乘。 其人曰：「我圍張角一軍，ー張寶，一名張寶勢窮力乏，必獲惡報。」玄德引軍鼓譟而進。賊勢大敗，後坐酬金失侯，後改雲長，河東解良人也！」三人飛馬引軍鼓譟而進。賊眾十五歲，母使游學，嘗師事盧植與賊相見。賊眾見救軍至，分兵混戰。玄德見他形貌異常，問其姓名。老人曰：「兒自來無此病； 次收封諝。唐州乃逕赴省中告變。操見過皇甫嵩，朱雋，各通姓名。",
          "credit_level": "B1",
          "apr": 6.4,
          "pgr": 40
        }
      }
    ],
    "first_page_url": "api/market-place?page=1",
    "from": 11,
    "last_page": 3,
    "last_page_url": "api/market-place?page=3",
    "next_page_url": "api/market-place?page=3",
    "path": "api/market-place",
    "per_page": 10,
    "prev_page_url": "api/market-place?page=1",
    "to": 20,
    "total": 30,
    "fake_loans_refresh_at": "2018-10-20 12:24:28"
  }